reference_period,o,h,l,c,v
2019-11-20,21.20,21.25,21.00,21.00,2914790
2019-11-21,21.00,21.20,20.85,21.00,4749840
2019-11-22,21.10,21.15,20.51,20.80,4060050
2019-11-25,20.90,20.90,20.61,20.85,2228300
2019-11-26,20.95,20.95,20.75,20.90,2125800
2019-11-27,20.90,21.00,20.75,20.75,1670250
2019-11-28,20.75,20.75,20.16,20.16,3637750
2019-11-29,20.21,20.26,19.96,20.16,3157760
2019-12-02,20.11,20.16,19.52,19.52,3939590
2019-12-03,19.23,19.72,19.23,19.32,3746930
2019-12-04,19.42,20.21,19.27,20.16,3727730
2019-12-05,20.21,20.21,19.82,19.82,1382950
2019-12-06,19.77,20.06,19.77,20.01,1845310
2019-12-09,19.91,20.06,19.87,19.87,2198400
2019-12-10,19.91,19.91,19.67,19.77,2293020
2019-12-11,19.77,19.87,19.42,19.57,2570270
2019-12-12,19.62,19.96,19.62,19.87,1909480
2019-12-13,19.96,20.41,19.96,20.31,3962760
2019-12-16,20.31,20.31,20.01,20.01,1437460
2019-12-17,20.06,20.26,19.96,19.96,1689580
2019-12-18,19.91,20.11,19.87,19.87,1746820
2019-12-19,19.91,20.01,19.72,19.87,1339070
2019-12-20,19.87,20.16,19.82,20.06,1068060
2019-12-23,20.11,20.51,20.11,20.26,3308670
2019-12-24,20.36,20.36,20.11,20.31,1254620
2019-12-25,20.21,20.51,20.21,20.31,1381280
2019-12-26,20.31,20.41,20.16,20.31,2075490
2019-12-27,20.36,20.36,20.06,20.36,1589060
2019-12-30,20.41,20.80,20.36,20.75,4624920
2019-12-31,20.85,20.90,20.56,20.61,1742690
2020-01-02,20.61,21.44,20.56,21.20,4347610
2020-01-03,21.44,21.54,20.95,21.00,3626640
2020-01-06,20.90,21.39,20.80,21.05,3173480
2020-01-07,21.30,21.54,21.15,21.39,4163600
2020-01-08,21.25,21.84,21.00,21.34,9864300
2020-01-09,21.54,22.28,21.54,22.13,8592300
2020-01-10,22.18,23.66,22.18,23.22,14701830
2020-01-13,22.97,23.66,22.87,22.87,5317470
2020-01-14,22.92,23.46,22.87,23.17,7040780
2020-01-15,23.17,23.37,22.92,23.27,4364850
2020-01-16,23.37,24.60,23.32,24.55,8002680
2020-01-17,24.84,25.04,24.25,24.60,6412750
2020-01-20,24.55,24.94,24.40,24.75,4737420
2020-01-21,24.84,25.44,24.75,24.94,6063350
2020-01-22,24.94,25.39,24.70,25.24,4747210
2020-01-30,24.55,24.99,23.66,24.01,11319200
2020-01-31,24.25,24.89,24.06,24.06,11815850
2020-02-03,23.17,24.84,22.92,24.80,13869450
2020-02-04,25.04,26.52,24.99,26.52,14852770
2020-02-05,27.01,27.41,26.18,26.18,11732260
2020-02-06,26.32,27.70,25.98,27.36,10566600
2020-02-07,27.11,27.26,26.27,26.52,8960350
2020-02-10,25.88,26.91,25.83,26.23,6287560
2020-02-11,26.52,27.36,26.47,27.36,6762320
2020-02-12,28.05,28.05,26.82,26.82,10390830
2020-02-13,26.96,27.21,26.13,26.87,9485770
2020-02-14,26.96,26.96,26.32,26.42,6108570
2020-02-17,26.52,26.67,26.03,26.18,5818090
2020-02-18,26.32,26.87,26.23,26.32,7231540
2020-02-19,26.42,26.82,26.42,26.62,5895360
2020-02-20,26.96,27.31,26.27,26.52,9011120
2020-02-21,26.42,26.52,25.29,25.49,12049570
2020-02-24,24.75,25.04,24.01,24.06,12317180
2020-02-25,24.06,25.73,24.01,25.73,9764100
2020-02-26,25.19,25.83,25.04,25.44,6229210
2020-02-27,25.39,25.83,25.24,25.83,5524580
2020-02-28,25.14,25.68,24.65,25.39,7892390
2020-03-02,25.58,25.68,25.04,25.14,4873970
2020-03-03,25.83,26.57,25.58,26.08,9514110
2020-03-04,25.93,26.08,25.63,26.08,4587660
2020-03-05,26.42,26.47,25.78,25.78,5997630
2020-03-06,25.44,25.68,25.09,25.39,5353340
2020-03-09,23.76,24.35,23.66,23.66,10773760
2020-03-10,23.66,24.70,22.82,24.16,11071330
2020-03-11,24.45,24.65,22.53,22.87,8522410
2020-03-12,21.69,22.08,21.30,21.49,11314020
2020-03-13,20.21,22.08,20.01,21.64,10540670
2020-03-16,21.64,21.74,20.21,20.21,7506240
2020-03-17,19.72,20.90,19.13,20.70,7946050
2020-03-18,21.00,21.25,20.66,20.66,6424470
2020-03-19,20.21,20.31,19.57,19.82,4724410
2020-03-20,20.11,20.21,19.37,19.52,6426820
2020-03-23,18.54,18.73,18.19,18.19,6448830
2020-03-24,18.19,18.44,17.40,18.04,6361270
2020-03-25,18.73,19.27,18.54,19.27,7041040
2020-03-26,18.78,19.32,18.54,18.54,5121770
2020-03-27,18.78,18.83,18.44,18.73,6261510
2020-03-30,17.60,17.75,17.45,17.45,7331160
2020-03-31,17.75,18.24,16.37,16.96,6102570
2020-04-01,16.76,18.09,16.76,18.04,5514550
2020-04-03,18.34,18.73,18.24,18.54,4625590
2020-04-06,19.03,19.82,18.73,19.82,10557010
2020-04-07,19.91,19.96,19.32,19.57,7256090
2020-04-08,19.03,19.72,18.83,19.42,4637260
2020-04-09,19.72,20.06,19.52,19.52,7265280
2020-04-10,19.52,19.82,19.03,19.18,5700980
2020-04-13,19.13,19.72,18.98,19.32,4183300
2020-04-14,19.27,19.47,18.54,18.93,7389910
2020-04-15,18.93,19.67,18.93,19.57,6758040
2020-04-16,19.32,19.62,19.13,19.52,3710320
2020-04-17,20.21,20.21,19.72,19.82,8578720
2020-04-20,20.01,20.16,19.57,19.57,6291720
2020-04-21,19.37,19.47,18.49,18.54,9299890
2020-04-22,18.14,19.42,18.14,18.98,6363800
2020-04-23,19.23,19.42,18.93,18.93,2950110
2020-04-24,18.93,19.03,18.73,18.93,2871100
2020-04-27,19.13,19.13,18.58,18.58,3900150
2020-04-28,18.58,19.03,18.44,18.78,3942840
2020-04-29,19.03,19.72,18.83,19.72,9337270
2020-05-04,19.47,20.16,19.27,19.77,7526760
2020-05-05,19.77,19.87,19.37,19.57,2976380
2020-05-06,19.67,20.01,19.27,19.91,6890670
2020-05-07,19.91,20.36,19.82,20.11,7523830
2020-05-08,20.41,21.34,20.31,20.61,12666220
2020-05-11,21.15,21.25,20.61,20.95,7654090
2020-05-12,20.85,21.49,20.56,21.34,6576780
2020-05-13,21.10,21.64,20.85,21.34,6959000
2020-05-14,21.10,21.44,21.05,21.05,5828440
2020-05-15,21.25,21.30,20.56,20.61,7303040
2020-05-18,20.66,21.05,20.41,21.05,5204650
2020-05-19,21.69,22.13,21.49,21.99,11023040
2020-05-20,21.69,21.99,21.59,21.99,5342980
2020-05-21,22.04,22.92,21.99,22.63,10616250
2020-05-22,22.48,23.27,22.33,22.48,7637850
2020-05-25,22.58,23.02,22.38,22.73,6731270
2020-05-26,22.73,22.97,22.53,22.82,6282980
2020-05-27,22.97,23.12,22.08,22.08,8420990
2020-05-28,22.23,22.63,22.04,22.23,5936110
2020-05-29,22.13,22.38,22.13,22.18,3561630
2020-06-01,22.48,23.17,22.38,23.17,7120400
2020-06-02,23.46,23.96,23.07,23.12,9588410
2020-06-03,23.27,23.71,23.22,23.66,6901900
2020-06-04,23.86,24.55,23.76,24.30,8945730
2020-06-05,24.16,24.35,23.86,24.11,5424300
2020-06-08,24.50,24.84,24.25,24.55,7059480
2020-06-09,24.65,24.65,23.86,23.76,6702380
2020-06-10,23.86,24.65,23.76,24.30,8248360
2020-06-11,24.35,24.45,22.63,22.63,9257760
2020-06-12,21.79,22.97,21.79,22.97,7094300
2020-06-15,22.87,23.17,21.79,21.99,7929180
2020-06-16,22.68,22.92,22.38,22.92,4034460
2020-06-17,22.68,22.92,22.58,22.68,2469120
2020-06-18,22.38,22.87,22.38,22.58,1954210
2020-06-19,22.82,23.07,22.63,23.02,2865250
2020-06-22,22.97,23.37,22.92,23.12,2986770
2020-06-23,23.07,23.22,22.73,22.92,2896760
2020-06-24,23.07,23.22,22.38,22.48,3055390
2020-06-25,22.18,22.53,22.08,22.38,2550180
2020-06-26,22.68,22.73,22.08,22.23,2337220
2020-06-29,22.08,22.23,21.34,21.59,4603180
2020-06-30,21.94,22.08,21.10,21.25,2812450
2020-07-01,21.34,21.99,21.25,21.99,2104360
2020-07-02,22.08,22.18,21.79,21.99,1743240
2020-07-03,22.04,22.13,21.99,21.99,2149960
2020-07-06,22.28,22.97,22.13,22.73,4849180
2020-07-07,22.97,23.37,22.87,23.12,6656300
2020-07-08,23.12,23.66,22.97,23.32,5304630
2020-07-09,23.37,23.86,23.22,23.76,6047940
2020-07-10,23.66,23.81,23.22,23.46,4645000
2020-07-13,23.66,24.25,23.61,23.61,6127280
2020-07-14,23.61,23.96,23.46,23.71,4016980
2020-07-15,23.96,24.01,23.76,23.76,2637330
2020-07-16,23.66,23.76,23.37,23.76,3780830
2020-07-17,23.66,23.96,23.46,23.76,3452100
2020-07-20,23.76,23.76,23.41,23.46,2923970
2020-07-21,23.56,23.61,23.12,23.51,2745180
2020-07-22,23.61,23.61,23.02,23.02,2698500
2020-07-23,23.17,23.17,22.68,23.02,2989960
2020-07-24,22.73,22.92,21.49,21.94,8461420
2020-07-27,21.00,21.59,20.41,20.41,7535580
2020-07-28,20.85,21.49,20.70,21.39,4278520
2020-07-29,20.90,21.00,20.11,20.56,4708610
2020-07-30,20.75,21.15,20.70,21.05,2574820
2020-07-31,20.70,21.20,20.61,20.90,2928540
2020-08-03,20.90,21.49,20.85,21.44,2692490
2020-08-04,21.79,21.99,21.59,21.74,3115850
2020-08-05,21.79,22.38,21.69,22.33,4575550
2020-08-06,22.33,22.48,22.04,22.08,2859860
2020-08-07,22.28,22.58,22.13,22.43,3870640
2020-08-10,22.77,23.07,22.48,22.48,4070190
2020-08-11,22.92,22.97,22.48,22.87,3873130
2020-08-12,22.97,23.46,22.87,23.07,4361920
2020-08-13,23.46,23.56,23.37,23.41,5131270
2020-08-14,23.32,23.51,22.92,23.17,5238720
2020-08-17,22.92,23.22,22.82,23.17,2898140
2020-08-18,23.17,23.22,22.77,22.87,2681950
2020-08-19,22.87,23.17,22.82,22.97,2560050
2020-08-20,23.07,23.22,22.92,22.97,4210180
2020-08-21,23.17,24.06,23.17,23.96,9577820
2020-08-24,24.35,24.45,24.06,24.06,4407840
2020-08-25,24.20,24.50,24.06,24.35,5203350
2020-08-26,24.16,24.75,24.11,24.35,6796160
2020-08-27,24.25,24.70,24.25,24.40,3085280
2020-08-28,24.55,25.04,24.45,24.75,9589990
2020-08-31,25.34,25.83,24.84,25.34,7359810
2020-09-01,25.34,25.78,25.24,25.78,4773840
2020-09-03,25.98,26.23,25.49,25.58,8343610
2020-09-04,25.24,26.03,25.24,25.63,6578630
2020-09-07,25.73,25.78,24.65,24.65,8021370
2020-09-08,24.89,25.19,24.45,25.19,5505960
2020-09-09,24.75,25.14,24.70,24.94,3872280
2020-09-10,25.04,25.29,24.94,24.94,2655550
2020-09-11,24.80,25.34,24.80,25.24,3472470
2020-09-14,25.63,25.63,25.19,25.24,2823060
2020-09-15,25.29,25.39,25.04,25.04,3265100
2020-09-16,25.09,25.09,24.80,24.84,3970480
2020-09-17,24.94,25.29,24.89,24.94,3996280
2020-09-18,25.14,25.49,25.04,25.44,4213030
2020-09-21,25.63,25.78,25.24,25.39,5072680
2020-09-22,25.24,25.49,25.14,25.44,4239110
2020-09-23,25.58,26.23,25.54,25.88,6418220
2020-09-24,25.83,25.93,25.49,25.63,3582600
2020-09-25,25.73,25.83,25.34,25.83,4630970
2020-09-28,26.03,27.06,26.03,26.77,12014920
2020-09-29,27.01,27.01,26.23,26.23,5950290
2020-09-30,26.23,26.37,25.88,26.18,4764680
2020-10-01,26.47,26.62,26.18,26.23,5391110
2020-10-02,26.72,27.01,25.93,26.57,13241830
2020-10-05,27.11,27.26,26.87,27.11,5939210
2020-10-06,27.21,27.26,26.82,26.87,5909080
2020-10-07,26.72,27.36,26.62,26.62,8357770
2020-10-08,26.82,27.01,26.42,26.77,6514330
2020-10-09,26.82,27.41,26.82,27.26,10113630
2020-10-12,29.13,29.13,28.34,28.69,16827340
2020-10-13,28.59,30.56,28.34,30.12,10920290
2020-10-14,30.27,30.41,29.58,29.58,8338720
2020-10-15,29.77,30.07,29.58,29.63,10107170
2020-10-16,30.07,31.01,29.77,30.71,12956750
2020-10-19,31.65,31.99,31.45,31.70,9648680
2020-10-20,31.40,31.84,31.25,31.65,9963500
2020-10-21,31.75,31.99,30.61,30.61,9191450
2020-10-22,30.56,31.55,30.37,31.55,8715860
2020-10-23,31.75,31.80,31.15,31.35,6636530
2020-10-26,31.45,31.45,30.07,30.07,8904630
2020-10-27,30.07,30.66,29.82,30.32,11228060
2020-10-28,30.07,30.51,29.48,29.48,7936180
2020-10-29,29.28,29.77,28.69,28.69,11708930
2020-10-30,28.89,29.08,27.80,28.59,9099270
2020-11-02,28.89,29.97,28.79,29.97,5194990
2020-11-03,30.22,30.27,29.68,29.77,4957760
2020-11-04,29.87,30.56,29.68,30.17,7152600
2020-11-05,30.07,30.46,29.82,29.82,5810810
2020-11-06,29.87,30.22,29.77,29.82,5382100
2020-11-09,30.22,30.66,30.22,30.51,7890820
2020-11-10,30.76,31.01,30.17,30.17,8706210
2020-11-11,30.32,30.46,29.97,30.07,6063870
2020-11-12,30.17,30.81,30.17,30.56,5609690
2020-11-13,30.76,31.55,30.76,31.50,10712410
2020-11-16,31.99,32.24,31.35,31.45,15774840
2020-11-17,31.75,32.19,31.55,32.04,8707180
2020-11-18,32.04,32.44,31.89,32.29,7298690
2020-11-19,32.29,32.83,32.09,32.83,13599610
2020-11-20,32.88,32.98,32.48,32.73,7237750
2020-11-23,32.73,32.73,32.14,32.44,7136380
2020-11-24,32.68,32.68,32.04,32.29,8848310
2020-11-25,32.73,33.03,32.44,32.53,10715800
2020-11-26,32.53,33.77,32.48,33.57,11623080
2020-11-27,33.72,34.01,33.52,33.57,6224220
2020-11-30,33.57,33.72,33.03,33.03,11002280
2020-12-01,32.53,33.52,32.44,33.42,9713470
2020-12-02,33.42,33.72,33.13,33.27,8657370
2020-12-03,33.32,33.57,33.23,33.32,6256350
2020-12-04,33.52,34.41,33.42,34.21,18959210
2020-12-07,34.51,34.60,34.11,34.21,7312770
2020-12-08,34.21,34.26,33.82,34.01,8604990
2020-12-09,34.01,34.41,33.96,34.01,8148750
2020-12-10,34.01,34.41,33.52,33.52,10188750
2020-12-11,33.91,34.31,33.47,34.26,8093800
2020-12-14,34.80,35.10,34.41,34.90,10847590
2020-12-15,34.90,34.90,34.16,34.51,10988240
2020-12-16,34.60,35.00,34.60,34.90,7708110
2020-12-17,34.90,35.10,34.10,34.10,14327750
2020-12-18,34.30,34.60,34.10,34.60,5660480
